INICIO: Mon Mar 20 08:36:13 BRT 2017
INDIVIDUALS OF LAST GENERATION: 19
Indi 0: Fitness: -10Genotype: [-0.1, 4.8, -0.7, 3.1, 3.5, 3.0, -1.8, 3.9, -1.1, 3.9, -2.1, -1.4, -1.1, -0.9, -1.2, -2.1]
Indi 1: Fitness: -3Genotype: [-0.1, 4.8, -0.7, -2.1, 3.5, 3.0, -1.8, 3.9, 2.7, 3.9, 3.1, 4.7, -1.1, -0.9, -1.2, -2.1]
Indi 2: Fitness: 0Genotype: [-0.1, -0.0, -0.7, 3.1, 3.5, 3.0, -1.8, 3.9, 3.3, 3.9, 3.1, -1.4, -1.1, 3.7, -1.2, -2.1]
Indi 3: Fitness: 1Genotype: [-0.1, 4.8, -0.7, 3.1, 3.5, -2.0, -1.8, 3.9, 3.3, 4.8, 3.1, -1.4, -1.1, -0.9, -1.2, -2.1]
Indi 4: Fitness: 3Genotype: [-0.1, 4.8, -0.7, 3.1, 2.7, 3.0, -1.8, 3.9, 3.3, 3.9, 3.1, -1.4, -1.1, -0.9, -1.2, -2.1]
Indi 5: Fitness: 3Genotype: [-0.1, -0.0, -0.7, 3.1, 3.9, 3.0, -1.8, 3.9, 3.3, 3.9, 3.1, -1.4, -1.1, -0.9, -1.2, -2.1]
Indi 6: Fitness: 19Genotype: [-0.1, 4.8, 3.7, -2.1, 3.5, 3.0, -1.8, 3.9, 3.3, 3.9, 3.1, 4.7, -1.1, -0.9, -1.2, -2.1]
Indi 7: Fitness: 27Genotype: [-0.1, 4.8, -0.7, 3.1, 4.5, 3.0, -1.2, 3.9, -1.9, 3.9, 3.1, -0.6, -1.1, -0.9, -1.2, -2.1]
Indi 8: Fitness: 31Genotype: [-0.1, 4.8, -0.3, -2.1, 3.5, 3.0, -1.8, 3.9, -0.4, 3.9, 3.1, -1.4, -1.1, -0.9, -1.2, -2.1]
Indi 9: Fitness: 31Genotype: [-0.1, 4.8, -0.7, 3.1, 3.5, 3.0, -1.8, 3.9, 3.3, 3.9, 3.1, -1.4, 4.4, -1.9, -1.2, -2.1]
Indi 10: Fitness: 32Genotype: [-1.4, 4.6, -2.0, -1.4, 4.5, 3.0, -2.2, 3.9, -1.7, 3.9, 3.1, -1.4, -1.1, -0.9, -1.2, -2.1]
Indi 11: Fitness: 32Genotype: [-0.1, 4.8, -0.7, 3.1, 3.5, 3.0, -1.8, 3.9, 3.3, 3.9, 3.1, -1.4, 4.1, -0.9, -1.2, -2.1]
Indi 12: Fitness: 32Genotype: [-0.1, 4.8, -0.7, 3.1, 2.9, 3.0, -1.2, 3.9, -1.9, 3.9, 3.1, -0.6, -1.1, -0.9, -1.2, -2.1]
Indi 13: Fitness: 34Genotype: [-0.1, 4.8, -0.7, -2.1, 4.5, 3.0, -1.2, 3.9, -1.7, 3.9, 3.1, -1.4, -1.1, -0.9, -1.2, -2.1]
Indi 14: Fitness: 35Genotype: [-0.1, 4.8, -0.3, -2.1, 3.5, 3.0, -1.8, 3.9, 3.3, 3.9, 3.1, -1.4, -1.1, -0.9, -1.2, -1.3]
Indi 15: Fitness: 35Genotype: [-1.4, 4.6, -2.0, -1.4, 3.5, 3.0, -1.8, 3.9, 3.3, 3.9, 3.1, -1.4, -1.1, -0.9, -1.2, -2.1]
Indi 16: Fitness: 35Genotype: [-0.1, -0.0, -0.7, 3.1, 3.5, 3.0, -1.8, 3.9, 3.3, 3.9, 3.1, -1.4, -1.1, -0.9, -1.2, -2.1]
Indi 17: Fitness: 40Genotype: [-0.1, 4.8, -0.7, -2.1, 3.5, 3.0, -1.8, 3.9, 3.3, 3.9, 3.1, -1.4, -1.1, -0.9, -1.2, -2.1]
Indi 18: Fitness: 40Genotype: [-0.1, 4.8, -0.7, 3.1, 3.5, -2.4, -1.8, 3.9, 3.3, 3.9, 3.1, -1.4, 4.4, -0.9, -1.2, -2.1]
Indi 19: Fitness: 42Genotype: [-0.1, 4.8, -0.7, -2.1, 3.5, 3.0, -1.8, 3.9, 3.3, 3.9, 3.1, -1.4, -1.1, -0.6, -1.2, -2.1]
Indi 20: Fitness: 70Genotype: [-0.1, 4.8, -0.7, 3.1, 3.5, 3.0, -1.8, 3.9, -1.1, 3.9, 3.1, -1.4, 5.0, -0.9, -1.2, -2.1]
Indi 21: Fitness: 71Genotype: [4.3, 4.8, -0.7, -2.1, 3.5, 3.0, -1.8, 3.9, 3.3, 3.9, 3.1, -1.4, -1.1, -0.9, -1.2, -2.1]
Indi 22: Fitness: 73Genotype: [-0.1, 4.8, -0.7, 3.1, 3.5, 3.0, -1.8, 3.9, 3.3, 3.9, 3.1, -1.4, -1.1, -0.9, -1.2, -2.1]
Indi 23: Fitness: 74Genotype: [-0.1, 4.8, -0.7, 3.1, 4.5, 3.0, -1.2, 3.9, -1.9, 3.9, 3.1, -0.6, -1.1, -0.9, -1.2, -2.1]
Indi 24: Fitness: 75Genotype: [-0.1, 4.8, -0.7, -2.1, 3.5, 3.0, -1.8, 3.9, 3.3, 3.9, 3.1, -1.4, -1.1, -0.9, -1.2, -2.1]
Indi 25: Fitness: 77Genotype: [-0.1, 4.8, -0.7, 3.1, 4.5, 3.0, -1.2, 3.9, -1.7, 3.9, 3.1, -1.4, -1.1, -0.9, -1.2, -2.1]
Indi 26: Fitness: 77Genotype: [-0.1, 4.8, -0.7, 3.1, 3.5, 3.0, -1.8, 3.9, 3.3, 3.9, 3.1, -1.4, 4.4, -0.9, -1.2, -2.1]
Indi 27: Fitness: 77Genotype: [-0.1, 4.8, -0.7, 3.1, 4.5, 3.0, -1.2, 3.9, -1.9, 3.9, 3.1, 5.0, -1.1, -0.9, -1.2, -2.1]
Indi 28: Fitness: 78Genotype: [-1.4, 4.6, -2.0, -1.4, 4.5, 4.9, -1.2, 3.9, -1.7, 3.9, 3.1, -1.4, -1.1, -0.9, -1.2, -2.1]
Indi 29: Fitness: 80Genotype: [-0.1, 4.8, -0.7, -2.1, 3.5, 3.0, -1.8, 3.9, 3.3, 3.9, 3.1, 4.7, -1.1, -0.9, -1.2, -2.1]
Indi 30: Fitness: 80Genotype: [-0.1, 4.8, -0.7, 3.1, 3.5, 3.0, -1.8, 3.9, 3.3, 4.8, 3.1, -1.4, -1.1, -0.9, -1.2, -2.1]
Indi 31: Fitness: 80Genotype: [-0.1, 4.8, -0.7, 3.1, 3.5, 3.0, -1.8, 3.9, -1.1, 3.9, 3.1, -1.4, -1.1, -0.9, -1.2, -2.1]
Indi 32: Fitness: 80Genotype: [-0.1, 4.8, -0.7, 3.1, 4.5, 3.0, -1.2, 3.9, -1.9, 3.9, 3.1, -0.6, -1.1, -0.9, -1.2, -2.1]
Indi 33: Fitness: 80Genotype: [-0.1, 4.8, -0.7, 3.1, 3.5, 3.0, -1.8, 3.9, 3.3, 3.9, 3.1, -1.4, 4.4, -0.9, -1.2, -2.1]
Indi 34: Fitness: 81Genotype: [-0.1, 4.8, -0.3, -2.1, 3.5, 3.0, -1.8, 3.9, 3.3, 3.9, 3.1, -1.4, -1.1, -0.9, -1.2, -2.1]
Indi 35: Fitness: 81Genotype: [-1.4, 4.6, -2.0, -1.4, 4.5, 3.0, -1.2, 3.9, -1.7, 3.9, 3.1, -1.4, -1.1, -0.9, -1.2, -2.1]
Indi 36: Fitness: 81Genotype: [-0.1, 4.8, -0.7, 3.1, 3.5, 3.0, -1.8, 3.9, 3.3, 3.9, 3.1, -1.4, -1.1, -0.9, -1.2, -2.1]
Indi 37: Fitness: 81Genotype: [-0.1, 4.8, -0.7, -2.1, 3.5, 3.0, -1.8, 3.9, 3.3, 3.9, 3.1, -1.4, -1.1, -0.9, -1.2, -2.1]
Indi 38: Fitness: 81Genotype: [-0.1, -0.0, -0.7, 3.1, 3.5, 3.0, -1.8, 3.9, 3.3, 3.9, 3.1, -1.4, -1.1, -0.9, -1.2, -2.1]
Indi 39: Fitness: 81Genotype: [-0.1, 4.8, -0.7, 3.1, 3.5, 3.0, -1.8, 2.7, 3.3, 4.8, 3.1, -1.4, -1.1, -0.9, -1.2, -2.1]
